{"page":1,"per_page":3,"total":12,"total_pages":4,"data":[{"id":1,"produk":"Produk Beng - Beng","first_name":"Tasty Snack Indonesia","last_name":"Murah Meriah","avatar":"http://localhost/api/img/mie.jpg"},
{"id":2,"produk":"Richess","first_name":"Ahh","last_name":"Joss","avatar":"http://localhost/api/img/sabun.jpg"},
{"id":3,"produk":"Indomie Kuah","first_name":"Rasa Mantap","last_name":"Joss","avatar":"http://localhost/api/img/snack.jpg"}],
"support":{"url":"https://reqres.in/#support-heading","text":"To keep ReqRes free, contributions towards server costs are appreciated!"}}